{
    "name": "Inputs",
    "maps": [
        {
            "name": "Clicker",
            "id": "db95236d-7cc1-485a-8c5f-c07a54de3368",
            "actions": [
                {
                    "name": "MouseDown",
                    "type": "Button",
                    "id": "6af3a12d-f781-44e8-97a7-d2f3fe58f2f1",
                    "expectedControlType": "Button",
                    "processors": "",
                    "interactions": "",
                    "initialStateCheck": false
                },
                {
                    "name": "Pointer",
                    "type": "Value",
                    "id": "79c64307-3db7-47d7-89c3-78768be42838",
                    "expectedControlType": "Vector2",
                    "processors": "",
                    "interactions": "",
                    "initialStateCheck": true
                }
            ],
            "bindings": [
                {
                    "name": "",
                    "id": "afa3e3ca-4bdb-4f6b-b7f3-72dab49f3660",
                    "path": "<Mouse>/leftButton",
                    "interactions": "",
                    "processors": "",
                    "groups": "",
                    "action": "MouseDown",
                    "isComposite": false,
                    "isPartOfComposite": false
                },
                {
                    "name": "",
                    "id": "a05bd739-4966-49b0-a1cd-a18c2c949b02",
                    "path": "<Touchscreen>/Press",
                    "interactions": "",
                    "processors": "",
                    "groups": "",
                    "action": "MouseDown",
                    "isComposite": false,
                    "isPartOfComposite": false
                },
                {
                    "name": "",
                    "id": "1b610cfc-cdba-4172-8d59-767e1af0f425",
                    "path": "<Mouse>/position",
                    "interactions": "",
                    "processors": "",
                    "groups": "",
                    "action": "Pointer",
                    "isComposite": false,
                    "isPartOfComposite": false
                },
                {
                    "name": "",
                    "id": "3b3ebd7d-33e8-4ca5-8b19-debfb6b1e374",
                    "path": "<Touchscreen>/position",
                    "interactions": "",
                    "processors": "",
                    "groups": "",
                    "action": "Pointer",
                    "isComposite": false,
                    "isPartOfComposite": false
                }
            ]
        }
    ],
    "controlSchemes": []
}